My Data Analysis Portfolio - Data Analysis Exercise
…
saveRDS(summary_df, file = "dataanalysis_exercise/results/summarytable.rds") #Tells to save as RDS file

This section added by Sara Benist

###Load RDS file

readRDS(file = "dataanalysis_exercise/data/clean_data/cleandata_file.rds")

# A tibble: 209 × 4
    year cause                   state   deaths
   <dbl> <chr>                   <chr>    <dbl>
 1  2017 Unintentional injuries  Georgia   4712
 2  2017 All causes              Georgia  83098
 3  2017 Alzheimer's disease     Georgia   4290
 4  2017 Stroke                  Georgia   4399
 5  2017 CLRD                    Georgia   4866
 6  2017 Diabetes                Georgia   2348
 7  2017 Heart disease           Georgia  18389
 8  2017 Influenza and pneumonia Georgia   1400
 9  2017 Suicide                 Georgia   1451
10  2017 Cancer                  Georgia  17135
# … with 199 more rows
…
