My Data Analysis Portfolio - Tidy Tuesday Exercise2
…
Tuning Grid Specification

We can create a regular grid of values to try using some convenience functions for each hyperparameter:

#create a regular grid of values for using convenience functions for each hyperparameter.
tree_grid_dtree <-
  grid_regular(
    cost_complexity(), 
    tree_depth(), 
    levels = 5)

tree_grid_dtree

# A tibble: 25 × 2
   cost_complexity tree_depth
             <dbl>      <int>
 1    0.0000000001          1
 2    0.0000000178          1
 3    0.00000316            1
 4    0.000562              1
 5    0.1                   1
 6    0.0000000001          4
 7    0.0000000178          4
 8    0.00000316            4
 9    0.000562              4
10    0.1                   4
# … with 15 more rows

Tuning using Cross-validation and tune_grid() function

dtree_resample <- 
  dtree_wf %>% 
  tune_grid(
    resamples = fold_egg_train,
    grid = tree_grid_dtree)

Once we have our tuning results, we can both explore them through visualization and then select the best result. The function collect_metrics() gives us a tidy tibble with all the results

dtree_resample %>%
  collect_metrics()

# A tibble: 50 × 8
   cost_complexity tree_depth .metric .estimator  mean     n std_err .config    
             <dbl>      <int> <chr>   <chr>      <dbl> <int>   <dbl> <chr>      
 1    0.0000000001          1 rmse    standard   0.872    25 0.0152  Preprocess…
 2    0.0000000001          1 rsq     standard   0.841    25 0.00563 Preprocess…
 3    0.0000000178          1 rmse    standard   0.872    25 0.0152  Preprocess…
 4    0.0000000178          1 rsq     standard   0.841    25 0.00563 Preprocess…
 5    0.00000316            1 rmse    standard   0.872    25 0.0152  Preprocess…
 6    0.00000316            1 rsq     standard   0.841    25 0.00563 Preprocess…
 7    0.000562              1 rmse    standard   0.872    25 0.0152  Preprocess…
 8    0.000562              1 rsq     standard   0.841    25 0.00563 Preprocess…
 9    0.1                   1 rmse    standard   0.872    25 0.0152  Preprocess…
10    0.1                   1 rsq     standard   0.841    25 0.00563 Preprocess…
# … with 40 more rows
…
#Create workflow for fitting model to train predictions
dtree_final_fit <- 
  dtree_final_wf %>%
  fit(train) 

Calculating Residuals and Plotting Actual Vs. Predicted Values

dtree_residuals <- dtree_final_fit %>%
  augment(train) %>% #use augment() to make predictions from train data
  select(c(.pred, egg_hen)) %>%
  mutate(.resid = egg_hen - .pred) #calculate residuals and make new row.

dtree_residuals

# A tibble: 165 × 3
   .pred egg_hen  .resid
   <dbl>   <dbl>   <dbl>
 1  23.6    23.2 -0.406 
 2  23.6    23.6 -0.0187
 3  19.0    18.9 -0.101 
 4  23.6    23.6  0.0588
 5  19.0    18.6 -0.424 
 6  19.0    18.2 -0.813 
 7  23.6    23.4 -0.174 
 8  23.6    23.2 -0.406 
 9  19.0    19.2  0.185 
10  19.0    18.6 -0.454 
# … with 155 more rows
…
Cross-validation

rf_resample <- 
  rf_wf %>% 
  tune_grid(fold_egg_train,
            grid = 25,
            control = control_grid(save_pred = TRUE),
            metrics = metric_set(yardstick::rmse))

i Creating pre-processing data to finalize unknown parameter: mtry

rf_resample %>%
  collect_metrics()

# A tibble: 23 × 8
    mtry min_n .metric .estimator  mean     n std_err .config              
   <int> <int> <chr>   <chr>      <dbl> <int>   <dbl> <chr>                
 1     1     3 rmse    standard   0.872    25  0.0152 Preprocessor1_Model01
 2     1     9 rmse    standard   0.872    25  0.0153 Preprocessor1_Model02
 3     1    27 rmse    standard   0.872    25  0.0152 Preprocessor1_Model03
 4     1     4 rmse    standard   0.872    25  0.0153 Preprocessor1_Model04
 5     1    13 rmse    standard   0.872    25  0.0152 Preprocessor1_Model05
 6     1    23 rmse    standard   0.872    25  0.0152 Preprocessor1_Model06
 7     1    21 rmse    standard   0.872    25  0.0152 Preprocessor1_Model07
 8     1    35 rmse    standard   0.872    25  0.0153 Preprocessor1_Model08
 9     1    12 rmse    standard   0.872    25  0.0152 Preprocessor1_Model09
10     1     6 rmse    standard   0.872    25  0.0152 Preprocessor1_Model10
# … with 13 more rows
…
#Create workflow for fitting model to train_data2 predictions
rf_final_fit <- 
  rf_final_wf %>%
  fit(train) 

Calculate Residuals

rf_residuals <- rf_final_fit %>%
  augment(train) %>% #use augment() to make predictions from train data
  select(c(.pred, egg_hen)) %>%
  mutate(.resid = egg_hen - .pred) #calculate residuals and make new row.

rf_residuals

# A tibble: 165 × 3
   .pred egg_hen  .resid
   <dbl>   <dbl>   <dbl>
 1  23.6    23.2 -0.408 
 2  23.6    23.6 -0.0202
 3  19.0    18.9 -0.101 
 4  23.6    23.6  0.0574
 5  19.0    18.6 -0.424 
 6  19.0    18.2 -0.813 
 7  23.6    23.4 -0.175 
 8  23.6    23.2 -0.408 
 9  19.0    19.2  0.185 
10  19.0    18.6 -0.454 
# … with 155 more rows
…
