My Data Analysis Portfolio - Visualization Exercise
…
men_18<- men %>% #Single point of interest (2018)
  filter(year %in% 2018)

women_18<- women %>% #Single point of interest (2018)
  filter(year %in% 2018)

Let’s take a look at the result

print(men2)

# A tibble: 122 × 6
    year name                           country       time     time2 country2   
   <dbl> <chr>                          <chr>         <time>   <dbl> <chr>      
 1  2018 "Yuki Kawauchi"                Japan         02:15:58  8158 Japan      
 2  2017 "Geoffrey Kirui"               Kenya         02:09:37  7777 Kenya      
 3  2016 "Lemi Berhanu"                 Ethiopia      02:12:45  7965 <NA>       
 4  2015 "Lelisa Desisa"                Ethiopia      02:09:17  7757 <NA>       
 5  2014 "Mebrahtom \"Meb\" Keflezighi" United States 02:08:37  7717 United Sta…
 6  2013 "Lelisa Desisa"                Ethiopia      02:10:22  7822 <NA>       
 7  2012 "Wesley Korir"                 Kenya         02:12:40  7960 Kenya      
 8  2011 "Geoffrey Mutai"               Kenya         02:03:02  7382 Kenya      
 9  2010 "Robert Kiprono Cheruiyot"     Kenya         02:05:52  7552 Kenya      
10  2009 "Deriba Merga"                 Ethiopia      02:08:42  7722 <NA>       
# … with 112 more rows

print(women2)

# A tibble: 53 × 6
    year name            country       time     time2 country2     
   <dbl> <chr>           <chr>         <time>   <dbl> <chr>        
 1  2018 Desiree Linden  United States 02:39:54  9594 United States
 2  2017 Edna Kiplagat   Kenya         02:21:52  8512 Kenya        
 3  2016 Atsede Baysa    Ethiopia      02:29:19  8959 Ethiopia     
 4  2015 Caroline Rotich Kenya         02:24:55  8695 Kenya        
 5  2014 Buzunesh Deba   Ethiopia      02:19:59  8399 Ethiopia     
 6  2013 Rita Jeptoo     Kenya         02:26:25  8785 Kenya        
 7  2012 Sharon Cherop   Kenya         02:31:50  9110 Kenya        
 8  2011 Caroline Kilel  Kenya         02:22:36  8556 Kenya        
 9  2010 Teyba Erkesso   Ethiopia      02:26:11  8771 Ethiopia     
10  2009 Salina Kosgei   Kenya         02:32:16  9136 Kenya        
# … with 43 more rows
…
